1,1
2.33422,1.29788
1.5,1.5
1.33789,1.41279
2,2
2.2774,2.11782
2.5,1.5
2.4057,1.57992
3,1
3.5832,1.30264
3.5,1.5
4.76714,1.43307
4,2
3.99255,1.99754
4.5,1.5
5.36544,1.53786
5,2
4.83844,1.95649
5.5,1.5
5.65812,1.63384
5,2
5.15812,1.65426
4.5,1.5
4.06095,1.64877
4,2
4.44071,1.7621
3.5,1.5
3.2523,1.44739
3,1
3.02733,0.425134
2.5,1.5
3.42576,2.64129
2,2
1.83952,1.93829
1.5,1.5
1.49809,1.6236
1,1
1.35712,0.638244
1,1
1.03479,0.437387
1.5,1.5
1.9911,1.21127
2,2
2.5142,1.9074
2.5,1.5
2.99783,1.74891
3,1
3.001,0.944267
3.5,1.5
4.52905,1.70275
4,2
3.90764,2.12601
4.5,1.5
3.80869,1.16106
5,2
5.4918,0.864852
5.5,1.5
5.57343,1.33156
5,2
4.80849,2.2269
4.5,1.5
4.67488,1.70228
4,2
3.81446,2.27795
3.5,1.5
3.8362,1.45681
3,1
3.42965,1.11351
2.5,1.5
1.88635,1.66562
2,2
2.11348,1.88395
1.5,1.5
1.47034,1.66702
1,1
0.944573,1.11598
1,1
1.41448,1.3905
1.5,1.5
1.65186,1.57042
2,2
2.42166,1.63022
2.5,1.5
1.96753,1.88516
3,1
3.24011,1.08411
3.5,1.5
3.51651,1.488
4,2
3.4089,1.82498
4.5,1.5
5.23261,1.28628
5,2
4.84649,1.64753
5.5,1.5
5.79558,1.74504
5,2
4.83239,1.40799
4.5,1.5
4.99621,1.5145
4,2
4.03802,2.14297
3.5,1.5
4.1455,1.26454
3,1
2.84537,1.28769
2.5,1.5
2.92985,1.10221
2,2
2.2979,2.45683
1.5,1.5
1.24044,1.57261
1,1
1.05799,1.18686
1,1
1.03064,1.1466
1.5,1.5
2.28182,1.36964
2,2
1.50473,2.00155
2.5,1.5
2.36134,1.3566
3,1
3.07608,0.839437
3.5,1.5
3.52281,1.21784
4,2
4.32389,1.9091
4.5,1.5
4.64707,1.55098
5,2
4.14968,1.98122
5.5,1.5
4.83606,1.83474
5,2
4.90769,1.96478
4.5,1.5
5.47369,1.29159
4,2
3.56714,1.764
3.5,1.5
2.97117,1.36484
3,1
3.71168,1.04786
2.5,1.5
3.09622,1.53225
2,2
1.04201,1.66129
1.5,1.5
0.956009,1.49457
1,1
2.45987,0.511103
1,1
0.837923,1.28792
1.5,1.5
1.2966,1.60672
2,2
1.86128,1.79061
2.5,1.5
2.00003,1.91009
3,1
2.92708,1.24507
3.5,1.5
3.72015,1.47442
4,2
4.91289,1.73949
4.5,1.5
4.10817,1.82725
5,2
4.97577,1.72228
5.5,1.5
4.05432,1.11004
5,2
4.55567,2.74382
4.5,1.5
4.00255,2.00069
4,2
4.50599,1.94935
3.5,1.5
3.38052,1.55449
3,1
3.26307,0.849928
2.5,1.5
3.26459,2.25113
2,2
2.4053,1.73388
1.5,1.5
1.42663,1.36104
1,1
0.59132,1.81619
1,1
0.934202,1.32394
1.5,1.5
1.27514,1.57638
2,2
1.45274,2.22154
2.5,1.5
2.64758,1.72808
3,1
2.6205,0.649982
3.5,1.5
4.31101,1.55652
4,2
3.35375,1.71211
4.5,1.5
