1,1
3.17218,1.09881
1.5,1.5
2.75494,0.924033
2,2
3.04147,3
2.5,1.5
3.70815,2.23625
3,1
4.58568,-0.03552
3.5,1.5
4.40099,0.991356
4,2
3.96938,1.9436
4.5,1.5
4.54374,0.59498
5,2
3.32801,3
5.5,1.5
6.17779,1.92229
5,2
3.7136,1.60674
4.5,1.5
2.4542,1.73062
4,2
2.60147,2.73412
3.5,1.5
1.31001,1.07121
3,1
2.39492,2.82622e-08
2.5,1.5
3.63119,2.98676
2,2
1.0652,3.09838
1.5,1.5
2.58083,1.87007
1,1
4.25664,1.10037
1,1
2.07018,1.19842
1.5,1.5
-6.12498,-1.77476
2,2
2.84672,1.8651
2.5,1.5
3.98484,2.33032
3,1
3.064,0.902675
3.5,1.5
2.02949,1.43958
4,2
3.80658,1.98929
4.5,1.5
2.56283,-1.58778
5,2
2.99087,1.185
5.5,1.5
5.54241,1.0614
5,2
4.43371,2.44389
4.5,1.5
3.31652,3
4,2
3.51768,3
3.5,1.5
4.13696,1.30666
3,1
3.08705,0
2.5,1.5
1.37104,1.43706
2,2
2.15521,1.8191
1.5,1.5
3.47551,-1.28284
1,1
-1.01847,0.67219
1,1
1.3468,2.20829
1.5,1.5
3.54182,1.47082
2,2
1.25331,0.744982
2.5,1.5
3.41305,0.871218
3,1
2.95444,1.58662
3.5,1.5
5.37323,1.07325
4,2
3.89827,0.455459
4.5,1.5
5.36178,1.39139
5,2
4.21945,-0.453101
5.5,1.5
5.86956,2.1196
5,2
3.92834,0.621734
4.5,1.5
5.52268,1.35658
4,2
4.16295,2.26412
3.5,1.5
8.41997,-1.82696
3,1
2.81828,2.17715
2.5,1.5
3.62197,0.894329
2,2
2.45948,3
1.5,1.5
2.58665,2.41257
1,1
-0.999202,1.03035
1,1
3.03762,3.05238e-06
1.5,1.5
5.44861,3
2,2
3.77808,1.73917
2.5,1.5
3.26105,2.3141
3,1
3.59724,0.738999
3.5,1.5
2.9089,0.998022
4,2
5.6713,1.95034
4.5,1.5
3.08139,2.01633
5,2
0.590099,1.83467
5.5,1.5
5.00367,1.98671
5,2
4.8182,1.87071
4.5,1.5
4.39145,-0.899087
4,2
3.35153,1.76075
3.5,1.5
2.22385,0.839744
3,1
4.83298,1.54444
2.5,1.5
2.8103,3
2,2
-2.93156,3
1.5,1.5
0.536305,1.53864
1,1
2.81597,-0.79333
1,1
2.16837,1.75614
1.5,1.5
3.14248,3
2,2
4.63719,2.04897
2.5,1.5
1.80034,2.92161
3,1
4.15836,0.53108
3.5,1.5
4.03136,1.34493
4,2
7.54199,0.337678
4.5,1.5
4.22781,2.65427
5,2
3.54691,0.968285
5.5,1.5
-7.43388,2.96269
5,2
4.06723,3
4.5,1.5
3.4485,3
4,2
4.00853,1.66679
3.5,1.5
3.93584,2.25627
3,1
3.16546,1.04195
2.5,1.5
3.97819,2.5926
2,2
3.08266,1.16141
1.5,1.5
3.90597,-1.57192
1,1
5.07478,2.89667
1,1
1.25054,2.45902
1.5,1.5
2.77408,2.99998
2,2
2.59891,1.92652
2.5,1.5
7.47697,3
3,1
1.05816,-1.24159
3.5,1.5
3.79661,1.54879
4,2
-0.869572,2.99987
4.5,1.5
